<?xml version="1.0" encoding="utf-8"?>
<!-- Generated by IcoMoon.io -->
<!DOCTYPE svg PUBLIC "-//W3C//DTD SVG 1.1//EN" "http://www.w3.org/Graphics/SVG/1.1/DTD/svg11.dtd">
<svg xmlns="http://www.w3.org/2000/svg" xmlns:xlink="http://www.w3.org/1999/xlink" version="1.1" width="512px" height="512px" viewBox="0 0 16 16">
<path fill="#6fb048" d="M16 0l-16 8 4.7 1.6 0.3 5.4 2.5-2.8 2.5 3.8 6-16zM7.5 10.4l4.3-5.9-6.2 4.3-3-1 11.6-5.8-4.5 11.8-2.2-3.4z"/>
</svg>
